"Noise","Argos","ACOUSTIC SOLUTIONS","Brown Goods",NULL,NULL
"Noise","Argos","ACOUSTIC SOLUTIONS (VESTEL)","Brown Goods",NULL,NULL
"Noise","Argos","ALBA","Brown Goods",NULL,NULL
"Noise","Argos","ALBA (VESTEL)","Brown Goods",NULL,NULL
"Noise","Argos","BUSH","Brown Goods",NULL,NULL
"Noise","Argos","BUSH (VESTEL)","Brown Goods",NULL,NULL
"Noise","Argos","EVOTEL","Brown Goods",NULL,NULL
"Noise","Argos","GRUNDIG","Brown Goods",NULL,NULL
"Noise","Argos","HITACHI","Brown Goods",NULL,NULL
"Noise","Argos","TECHWOOD","Brown Goods",NULL,NULL
"Noise","Argos","TECHWOOD (VESTEL)","Brown Goods",NULL,NULL
"Noise","Argos","TOSHIBA","Brown Goods",NULL,NULL
"Noise","Argos","WHARFEDALE","Brown Goods",NULL,NULL
"Noise","Argos","WHARFEDALE (VESTEL)","Brown Goods",NULL,NULL
"Noise","Argos","GOODMANS","Brown Goods",NULL,NULL
"Noise","Argos","JVC","Brown Goods",NULL,NULL
"Noise","Argos","NEON","Brown Goods",NULL,NULL
