<?xml version="1.0" encoding="utf-8"?>
<!-- Generator: Adobe Illustrator 15.1.0, SVG Export Plug-In . SVG Version: 6.00 Build 0)  -->
<!DOCTYPE svg PUBLIC "-//W3C//DTD SVG 1.1//EN" "http://www.w3.org/Graphics/SVG/1.1/DTD/svg11.dtd">
<svg version="1.1" id="Layer_1" xmlns="http://www.w3.org/2000/svg" xmlns:xlink="http://www.w3.org/1999/xlink" x="0px" y="0px"
	 width="198.425px" height="117.621px" viewBox="0 0 198.425 117.621" enable-background="new 0 0 198.425 117.621"
	 xml:space="preserve">
<g>
	<g>
		<defs>
			<rect id="SVGID_1_" x="0" width="198.425" height="117.621"/>
		</defs>
		<clipPath id="SVGID_2_">
			<use xlink:href="#SVGID_1_"  overflow="visible"/>
		</clipPath>
		<g clip-path="url(#SVGID_2_)">
			
				<line fill="none" stroke="#6DCFF6" stroke-width="2" stroke-miterlimit="10" x1="17.082" y1="109.839" x2="181.53" y2="109.839"/>
			<rect x="17.053" y="11.344" fill="#6DCFF6" width="164.507" height="92.229"/>
			<text transform="matrix(1 0 0 1 58.4524 98.7109)" fill="#FFFFFF" font-family="'Pirulen'" font-size="20.2923">SKYLINE</text>
			<g>
				<rect x="41.203" y="65.569" fill="#BCE6FB" width="11.499" height="11.498"/>
				<rect x="46.954" y="71.318" fill="#00C1F3" width="11.498" height="11.499"/>
			</g>
		</g>
	</g>
</g>
</svg>
